/home/mr-phil/Schule/git/crypto-wallet/src/main/java/domain/CurrentPriceForCurrency.java
/home/mr-phil/Schule/git/crypto-wallet/src/main/java/exceptions/InvalidFeeException.java
/home/mr-phil/Schule/git/crypto-wallet/src/main/java/exceptions/InsufficientAmountException.java
/home/mr-phil/Schule/git/crypto-wallet/src/main/java/ui/BaseControllerState.java
/home/mr-phil/Schule/git/crypto-wallet/src/main/java/infrastruktur/CurrentCurrencyPrices.java
/home/mr-phil/Schule/git/crypto-wallet/src/main/java/domain/CryptoCurrency.java
/home/mr-phil/Schule/git/crypto-wallet/src/main/java/exceptions/InvalidAmountExceptions.java
/home/mr-phil/Schule/git/crypto-wallet/src/main/java/at/itkolleg/sample/WalletApp.java
/home/mr-phil/Schule/git/crypto-wallet/src/main/java/ui/WalletController.java
/home/mr-phil/Schule/git/crypto-wallet/src/main/java/domain/Transaction.java
/home/mr-phil/Schule/git/crypto-wallet/src/main/java/domain/BankAccount.java
/home/mr-phil/Schule/git/crypto-wallet/src/main/java/domain/WalletList.java
/home/mr-phil/Schule/git/crypto-wallet/src/main/java/exceptions/RetrieveDataException.java
/home/mr-phil/Schule/git/crypto-wallet/src/main/java/exceptions/InsufficientBalanceException.java
/home/mr-phil/Schule/git/crypto-wallet/src/main/java/infrastruktur/FileDataStore.java
/home/mr-phil/Schule/git/crypto-wallet/src/main/java/exceptions/SaveDataException.java
/home/mr-phil/Schule/git/crypto-wallet/src/main/java/exceptions/GetCurrentPriceException.java
/home/mr-phil/Schule/git/crypto-wallet/src/main/java/ui/MainController.java
/home/mr-phil/Schule/git/crypto-wallet/src/main/java/ui/GlobalContext.java
/home/mr-phil/Schule/git/crypto-wallet/src/main/java/domain/Wallet.java
/home/mr-phil/Schule/git/crypto-wallet/src/main/java/domain/DataStore.java
